{
  "project_info": {
    "project_number": "1008547198602",
    "firebase_url": "https://teacheryelloapp.firebaseio.com",
    "project_id": "teacheryelloapp",
    "storage_bucket": "teacheryelloapp.appspot.com"
  },
  "client": [
    {
      "client_info": {
        "mobilesdk_app_id": "1:1008547198602:android:9225719dbecb4c02",
        "android_client_info": {
          "package_name": "com.example.gabri.teacheryelloapp"
        }
      },
      "oauth_client": [
        {
          "client_id": "1008547198602-mm5d1f5643it2ugqfqchl2r7sek1685h.apps.googleusercontent.com",
          "client_type": 3
        }
      ],
      "api_key": [
        {
          "current_key": "AIzaSyDF614thJu2LM4XXBmGM-IWJn94lX8p4t4"
        }
      ],
      "services": {
        "analytics_service": {
          "status": 1
        },
        "appinvite_service": {
          "status": 1,
          "other_platform_oauth_client": []
        },
        "ads_service": {
          "status": 2
        }
      }
    }
  ],
  "configuration_version": "1"
}